[
    {
        "url_object": "https://emirates.estate/ru/property/o45496/",
        "name_object": "Квартира в Дубай Марина, ОАЭ 2 спальни, 148.6м2",
        "id_object": "45496",
        "city": "Дубай",
        "region": "Дубай Марина",
        "tip": "Квартира",
        "rooms": "2",
        "square": "148.6 м²",
        "price_info": "$ 1701838"
    },
    {
        "url_object": "https://emirates.estate/ru/property/o44975/",
        "name_object": "Квартира в Умм-Сукейм, Дубай, ОАЭ 1 спальня, 76.1м2",
        "id_object": "44975",
        "city": "Дубай",
        "region": "Умм-Сукейм",
        "tip": "Квартира",
        "rooms": "1",
        "square": "76.1 м²",
        "price_info": "$ 411164"
    },
    {
        "url_object": "https://emirates.estate/ru/property/o21299/",
        "name_object": "Квартира в GOLF SUITES в Дубай Хилс Эстейт, ОАЭ 2 спальни, 102.2м2",
        "id_object": "21299",
        "city": "Дубай",
        "region": "Дубай Хилс Эстейт",
        "address": "47F5+X83 - Dubai - UAE",
        "tip": "Квартира",
        "rooms": "2",
        "square": "102.2 м²",
        "tosea": "7 км",
        "tocenter": "13.5 км",
        "finish": "I квартал, 2022",
        "price_info": "$ 408683"
    },
    {
        "url_object": "https://emirates.estate/ru/property/o8201/",
        "name_object": "Квартира в Дубай, ОАЭ 2 спальни, 143м2",
        "id_object": "8201",
        "city": "Дубай",
        "tip": "Квартира",
        "rooms": "2",
        "square": "143 м²",
        "price_info": "$ 544588"
    },
    {
        "url_object": "https://emirates.estate/ru/property/o121330/",
        "name_object": "Квартира в Даунтаун Дубай (Даунтаун Бурдж Дубай), Дубай, ОАЭ 3 спальни, 165.3м2",
        "id_object": "121330",
        "city": "Дубай",
        "region": "Downtown Views II",
        "tip": "Квартира",
        "rooms": "3",
        "square": "165.3 м²",
        "price_info": "$ 1252552"
    },
    {
        "url_object": "https://emirates.estate/ru/property/o57611/",
        "name_object": "Квартира в Meydan One, Дубай, ОАЭ 2 комнаты, 70.57м2",
        "id_object": "57611",
        "city": "Дубай",
        "region": "Meydan One",
        "tip": "Квартира",
        "rooms": "1+1",
        "square": "70.57 м²",
        "tosea": "10 км",
        "tocenter": "8 км",
        "price_info": "$ 265276"
    },
    {
        "url_object": "https://emirates.estate/ru/property/o109134/",
        "name_object": "Таунхаус в Nadd Al Sheba, Дубай, ОАЭ 3 комнаты, 287.26м2",
        "id_object": "109134",
        "city": "Дубай",
        "region": "Nad Al Sheba Gardens",
        "tip": "Таунхаус",
        "rooms": "3",
        "square": "287.26 м²",
        "finish": "2025",
        "price_info": "$ 1116405"
    },
    {
        "url_object": "https://emirates.estate/ru/property/o109788/",
        "name_object": "Квартира в Al Maryah Vista на Остров Аль-Мария, Абу-Даби, ОАЭ 2 комнаты, 70м2",
        "id_object": "109788",
        "city": "Абу-Даби",
        "region": "Остров Аль-Мария",
        "address": "Bridge - 10th St - Jazeerat Al Maryah - Abu Dhabi - UAE",
        "tip": "Квартира",
        "rooms": "1+1",
        "square": "70 м²",
        "tosea": "100 м",
        "tocenter": "4.5 км",
        "finish": "I квартал, 2024",
        "price_info": "$ 267330"
    },
    {
        "url_object": "https://emirates.estate/ru/o128076/",
        "name_object": "Вилла в Meydan, Дубай, ОАЭ 5 спален",
        "id_object": "128076",
        "city": "Дубай",
        "region": "Meydan",
        "tip": "Вилла",
        "rooms": "5",
        "price_info": "$ 2695711"
    }
]